<mxfile host="app.diagrams.net" modified="2024-04-09T06:15:10.238Z" agent="Mozilla/5.0 (Macintosh; Intel Mac OS X 10_15_7) AppleWebKit/537.36 (KHTML, like Gecko) Chrome/123.0.0.0 Safari/537.36 Edg/123.0.0.0" etag="WcSw4kptrMEWg1gneloH" version="23.0.2" type="gitlab">
  <diagram id="kgpKYQtTHZ0yAKxKKP6v" name="Page-1">
    <mxGraphModel dx="976" dy="576" grid="1" gridSize="10" guides="1" tooltips="1" connect="1" arrows="1" fold="1" page="1" pageScale="1" pageWidth="850" pageHeight="1100" math="0" shadow="0">
      <root>
        <mxCell id="0" />
        <mxCell id="1" parent="0" />
        <mxCell id="k5nkyvec4BkF93eA9V-N-11" value="" style="rounded=0;whiteSpace=wrap;html=1;fillColor=#dae8fc;strokeColor=#6c8ebf;" vertex="1" parent="1">
          <mxGeometry x="10" y="570" width="580" height="510" as="geometry" />
        </mxCell>
        <mxCell id="k5nkyvec4BkF93eA9V-N-1" value="" style="rounded=0;whiteSpace=wrap;html=1;fillColor=#ffe6cc;strokeColor=#d79b00;" vertex="1" parent="1">
          <mxGeometry x="10" y="30" width="580" height="530" as="geometry" />
        </mxCell>
        <mxCell id="eVm-2CJbFupEROwd0Fsr-10" style="edgeStyle=orthogonalEdgeStyle;rounded=0;orthogonalLoop=1;jettySize=auto;html=1;entryX=0;entryY=0.5;entryDx=0;entryDy=0;" parent="1" source="eVm-2CJbFupEROwd0Fsr-1" target="eVm-2CJbFupEROwd0Fsr-9" edge="1">
          <mxGeometry relative="1" as="geometry" />
        </mxCell>
        <mxCell id="eVm-2CJbFupEROwd0Fsr-1" value="transaction data&lt;br&gt;store" style="shape=cylinder3;whiteSpace=wrap;html=1;boundedLbl=1;backgroundOutline=1;size=15;fillColor=#d5e8d4;strokeColor=#82b366;" parent="1" vertex="1">
          <mxGeometry x="310" y="80" width="75" height="80" as="geometry" />
        </mxCell>
        <mxCell id="eVm-2CJbFupEROwd0Fsr-5" style="edgeStyle=orthogonalEdgeStyle;rounded=0;orthogonalLoop=1;jettySize=auto;html=1;entryX=0;entryY=0.5;entryDx=0;entryDy=0;" parent="1" source="eVm-2CJbFupEROwd0Fsr-2" target="eVm-2CJbFupEROwd0Fsr-3" edge="1">
          <mxGeometry relative="1" as="geometry" />
        </mxCell>
        <mxCell id="eVm-2CJbFupEROwd0Fsr-2" value="43 files&lt;br&gt;on&amp;nbsp;&lt;br&gt;Chiangmai" style="shape=cylinder3;whiteSpace=wrap;html=1;boundedLbl=1;backgroundOutline=1;size=15;fillColor=#d5e8d4;strokeColor=#82b366;" parent="1" vertex="1">
          <mxGeometry x="44" y="80" width="70" height="80" as="geometry" />
        </mxCell>
        <mxCell id="eVm-2CJbFupEROwd0Fsr-6" style="edgeStyle=orthogonalEdgeStyle;rounded=0;orthogonalLoop=1;jettySize=auto;html=1;entryX=0;entryY=0.5;entryDx=0;entryDy=0;entryPerimeter=0;" parent="1" source="eVm-2CJbFupEROwd0Fsr-3" target="eVm-2CJbFupEROwd0Fsr-1" edge="1">
          <mxGeometry relative="1" as="geometry" />
        </mxCell>
        <mxCell id="eVm-2CJbFupEROwd0Fsr-3" value="procedure" style="rounded=0;whiteSpace=wrap;html=1;fillColor=#d5e8d4;strokeColor=#82b366;" parent="1" vertex="1">
          <mxGeometry x="170" y="100" width="90" height="40" as="geometry" />
        </mxCell>
        <mxCell id="eVm-2CJbFupEROwd0Fsr-9" value="API (43)" style="rounded=0;whiteSpace=wrap;html=1;fillColor=#d5e8d4;strokeColor=#82b366;" parent="1" vertex="1">
          <mxGeometry x="442" y="100" width="90" height="40" as="geometry" />
        </mxCell>
        <mxCell id="eVm-2CJbFupEROwd0Fsr-75" style="edgeStyle=orthogonalEdgeStyle;rounded=0;orthogonalLoop=1;jettySize=auto;html=1;entryX=0.5;entryY=0;entryDx=0;entryDy=0;" parent="1" source="eVm-2CJbFupEROwd0Fsr-11" target="eVm-2CJbFupEROwd0Fsr-73" edge="1">
          <mxGeometry relative="1" as="geometry" />
        </mxCell>
        <mxCell id="eVm-2CJbFupEROwd0Fsr-11" value="CMU&lt;br&gt;DB" style="shape=cylinder3;whiteSpace=wrap;html=1;boundedLbl=1;backgroundOutline=1;size=15;" parent="1" vertex="1">
          <mxGeometry x="727.5" y="570" width="75" height="80" as="geometry" />
        </mxCell>
        <mxCell id="eVm-2CJbFupEROwd0Fsr-15" style="edgeStyle=orthogonalEdgeStyle;rounded=0;orthogonalLoop=1;jettySize=auto;html=1;" parent="1" source="eVm-2CJbFupEROwd0Fsr-13" target="eVm-2CJbFupEROwd0Fsr-11" edge="1">
          <mxGeometry relative="1" as="geometry" />
        </mxCell>
        <mxCell id="eVm-2CJbFupEROwd0Fsr-13" value="CMU API receiver" style="rounded=0;whiteSpace=wrap;html=1;" parent="1" vertex="1">
          <mxGeometry x="720" y="460" width="90" height="40" as="geometry" />
        </mxCell>
        <mxCell id="eVm-2CJbFupEROwd0Fsr-16" style="edgeStyle=orthogonalEdgeStyle;rounded=0;orthogonalLoop=1;jettySize=auto;html=1;entryX=0;entryY=0.5;entryDx=0;entryDy=0;" parent="1" source="eVm-2CJbFupEROwd0Fsr-17" target="eVm-2CJbFupEROwd0Fsr-22" edge="1">
          <mxGeometry relative="1" as="geometry" />
        </mxCell>
        <mxCell id="eVm-2CJbFupEROwd0Fsr-17" value="transaction data&lt;br&gt;store" style="shape=cylinder3;whiteSpace=wrap;html=1;boundedLbl=1;backgroundOutline=1;size=15;fillColor=#d5e8d4;strokeColor=#82b366;" parent="1" vertex="1">
          <mxGeometry x="310" y="200" width="75" height="80" as="geometry" />
        </mxCell>
        <mxCell id="eVm-2CJbFupEROwd0Fsr-18" style="edgeStyle=orthogonalEdgeStyle;rounded=0;orthogonalLoop=1;jettySize=auto;html=1;entryX=0;entryY=0.5;entryDx=0;entryDy=0;" parent="1" source="eVm-2CJbFupEROwd0Fsr-19" target="eVm-2CJbFupEROwd0Fsr-21" edge="1">
          <mxGeometry relative="1" as="geometry" />
        </mxCell>
        <mxCell id="eVm-2CJbFupEROwd0Fsr-19" value="43 files&lt;br&gt;on&amp;nbsp;&lt;br&gt;Lamphun" style="shape=cylinder3;whiteSpace=wrap;html=1;boundedLbl=1;backgroundOutline=1;size=15;fillColor=#d5e8d4;strokeColor=#82b366;" parent="1" vertex="1">
          <mxGeometry x="44" y="200" width="70" height="80" as="geometry" />
        </mxCell>
        <mxCell id="eVm-2CJbFupEROwd0Fsr-20" style="edgeStyle=orthogonalEdgeStyle;rounded=0;orthogonalLoop=1;jettySize=auto;html=1;entryX=0;entryY=0.5;entryDx=0;entryDy=0;entryPerimeter=0;" parent="1" source="eVm-2CJbFupEROwd0Fsr-21" target="eVm-2CJbFupEROwd0Fsr-17" edge="1">
          <mxGeometry relative="1" as="geometry" />
        </mxCell>
        <mxCell id="eVm-2CJbFupEROwd0Fsr-21" value="procedure" style="rounded=0;whiteSpace=wrap;html=1;fillColor=#d5e8d4;strokeColor=#82b366;" parent="1" vertex="1">
          <mxGeometry x="170" y="220" width="90" height="40" as="geometry" />
        </mxCell>
        <mxCell id="eVm-2CJbFupEROwd0Fsr-27" style="edgeStyle=orthogonalEdgeStyle;rounded=0;orthogonalLoop=1;jettySize=auto;html=1;startArrow=none;startFill=0;endArrow=none;endFill=0;" parent="1" source="eVm-2CJbFupEROwd0Fsr-22" edge="1">
          <mxGeometry relative="1" as="geometry">
            <mxPoint x="562" y="160" as="targetPoint" />
          </mxGeometry>
        </mxCell>
        <mxCell id="eVm-2CJbFupEROwd0Fsr-22" value="API (43)" style="rounded=0;whiteSpace=wrap;html=1;fillColor=#d5e8d4;strokeColor=#82b366;" parent="1" vertex="1">
          <mxGeometry x="442" y="220" width="90" height="40" as="geometry" />
        </mxCell>
        <mxCell id="eVm-2CJbFupEROwd0Fsr-25" style="edgeStyle=orthogonalEdgeStyle;rounded=0;orthogonalLoop=1;jettySize=auto;html=1;entryX=1;entryY=0.5;entryDx=0;entryDy=0;strokeColor=default;startArrow=classic;startFill=1;endArrow=none;endFill=0;" parent="1" source="eVm-2CJbFupEROwd0Fsr-24" target="eVm-2CJbFupEROwd0Fsr-9" edge="1">
          <mxGeometry relative="1" as="geometry" />
        </mxCell>
        <mxCell id="eVm-2CJbFupEROwd0Fsr-74" style="edgeStyle=orthogonalEdgeStyle;rounded=0;orthogonalLoop=1;jettySize=auto;html=1;" parent="1" source="eVm-2CJbFupEROwd0Fsr-24" target="eVm-2CJbFupEROwd0Fsr-13" edge="1">
          <mxGeometry relative="1" as="geometry" />
        </mxCell>
        <mxCell id="eVm-2CJbFupEROwd0Fsr-24" value="API Request (43)&lt;br&gt;API Request (HIS)" style="rounded=0;whiteSpace=wrap;html=1;fillColor=#d5e8d4;strokeColor=#82b366;" parent="1" vertex="1">
          <mxGeometry x="592" y="260" width="108" height="40" as="geometry" />
        </mxCell>
        <mxCell id="eVm-2CJbFupEROwd0Fsr-28" style="edgeStyle=orthogonalEdgeStyle;rounded=0;orthogonalLoop=1;jettySize=auto;html=1;entryX=0;entryY=0.5;entryDx=0;entryDy=0;" parent="1" source="eVm-2CJbFupEROwd0Fsr-29" target="eVm-2CJbFupEROwd0Fsr-34" edge="1">
          <mxGeometry relative="1" as="geometry" />
        </mxCell>
        <mxCell id="eVm-2CJbFupEROwd0Fsr-29" value="transaction data&lt;br&gt;store" style="shape=cylinder3;whiteSpace=wrap;html=1;boundedLbl=1;backgroundOutline=1;size=15;fillColor=#d5e8d4;strokeColor=#82b366;" parent="1" vertex="1">
          <mxGeometry x="310" y="326" width="75" height="80" as="geometry" />
        </mxCell>
        <mxCell id="eVm-2CJbFupEROwd0Fsr-30" style="edgeStyle=orthogonalEdgeStyle;rounded=0;orthogonalLoop=1;jettySize=auto;html=1;entryX=0;entryY=0.5;entryDx=0;entryDy=0;" parent="1" source="eVm-2CJbFupEROwd0Fsr-31" target="eVm-2CJbFupEROwd0Fsr-33" edge="1">
          <mxGeometry relative="1" as="geometry" />
        </mxCell>
        <mxCell id="eVm-2CJbFupEROwd0Fsr-31" value="43 files&lt;br&gt;on&amp;nbsp;&lt;br&gt;MaeHangson" style="shape=cylinder3;whiteSpace=wrap;html=1;boundedLbl=1;backgroundOutline=1;size=15;fillColor=#d5e8d4;strokeColor=#82b366;" parent="1" vertex="1">
          <mxGeometry x="44" y="326" width="70" height="80" as="geometry" />
        </mxCell>
        <mxCell id="eVm-2CJbFupEROwd0Fsr-32" style="edgeStyle=orthogonalEdgeStyle;rounded=0;orthogonalLoop=1;jettySize=auto;html=1;entryX=0;entryY=0.5;entryDx=0;entryDy=0;entryPerimeter=0;" parent="1" source="eVm-2CJbFupEROwd0Fsr-33" target="eVm-2CJbFupEROwd0Fsr-29" edge="1">
          <mxGeometry relative="1" as="geometry" />
        </mxCell>
        <mxCell id="eVm-2CJbFupEROwd0Fsr-33" value="procedure" style="rounded=0;whiteSpace=wrap;html=1;fillColor=#d5e8d4;strokeColor=#82b366;" parent="1" vertex="1">
          <mxGeometry x="170" y="346" width="90" height="40" as="geometry" />
        </mxCell>
        <mxCell id="eVm-2CJbFupEROwd0Fsr-35" style="edgeStyle=orthogonalEdgeStyle;rounded=0;orthogonalLoop=1;jettySize=auto;html=1;startArrow=none;startFill=0;endArrow=none;endFill=0;" parent="1" source="eVm-2CJbFupEROwd0Fsr-34" edge="1">
          <mxGeometry relative="1" as="geometry">
            <mxPoint x="562" y="230" as="targetPoint" />
          </mxGeometry>
        </mxCell>
        <mxCell id="eVm-2CJbFupEROwd0Fsr-34" value="API (43)" style="rounded=0;whiteSpace=wrap;html=1;fillColor=#d5e8d4;strokeColor=#82b366;" parent="1" vertex="1">
          <mxGeometry x="442" y="346" width="90" height="40" as="geometry" />
        </mxCell>
        <mxCell id="eVm-2CJbFupEROwd0Fsr-36" style="edgeStyle=orthogonalEdgeStyle;rounded=0;orthogonalLoop=1;jettySize=auto;html=1;entryX=0;entryY=0.5;entryDx=0;entryDy=0;" parent="1" source="eVm-2CJbFupEROwd0Fsr-37" target="eVm-2CJbFupEROwd0Fsr-42" edge="1">
          <mxGeometry relative="1" as="geometry" />
        </mxCell>
        <mxCell id="eVm-2CJbFupEROwd0Fsr-37" value="transaction data&lt;br&gt;store" style="shape=cylinder3;whiteSpace=wrap;html=1;boundedLbl=1;backgroundOutline=1;size=15;fillColor=#d5e8d4;strokeColor=#82b366;" parent="1" vertex="1">
          <mxGeometry x="310" y="455" width="75" height="80" as="geometry" />
        </mxCell>
        <mxCell id="eVm-2CJbFupEROwd0Fsr-38" style="edgeStyle=orthogonalEdgeStyle;rounded=0;orthogonalLoop=1;jettySize=auto;html=1;entryX=0;entryY=0.5;entryDx=0;entryDy=0;" parent="1" source="eVm-2CJbFupEROwd0Fsr-39" target="eVm-2CJbFupEROwd0Fsr-41" edge="1">
          <mxGeometry relative="1" as="geometry" />
        </mxCell>
        <mxCell id="eVm-2CJbFupEROwd0Fsr-39" value="43 files&lt;br&gt;on&amp;nbsp;&lt;br&gt;Chiangrai" style="shape=cylinder3;whiteSpace=wrap;html=1;boundedLbl=1;backgroundOutline=1;size=15;fillColor=#d5e8d4;strokeColor=#82b366;" parent="1" vertex="1">
          <mxGeometry x="44" y="455" width="70" height="80" as="geometry" />
        </mxCell>
        <mxCell id="eVm-2CJbFupEROwd0Fsr-40" style="edgeStyle=orthogonalEdgeStyle;rounded=0;orthogonalLoop=1;jettySize=auto;html=1;entryX=0;entryY=0.5;entryDx=0;entryDy=0;entryPerimeter=0;" parent="1" source="eVm-2CJbFupEROwd0Fsr-41" target="eVm-2CJbFupEROwd0Fsr-37" edge="1">
          <mxGeometry relative="1" as="geometry" />
        </mxCell>
        <mxCell id="eVm-2CJbFupEROwd0Fsr-41" value="procedure" style="rounded=0;whiteSpace=wrap;html=1;fillColor=#d5e8d4;strokeColor=#82b366;" parent="1" vertex="1">
          <mxGeometry x="170" y="475" width="90" height="40" as="geometry" />
        </mxCell>
        <mxCell id="eVm-2CJbFupEROwd0Fsr-43" style="edgeStyle=orthogonalEdgeStyle;rounded=0;orthogonalLoop=1;jettySize=auto;html=1;startArrow=none;startFill=0;endArrow=none;endFill=0;" parent="1" source="eVm-2CJbFupEROwd0Fsr-42" edge="1">
          <mxGeometry relative="1" as="geometry">
            <mxPoint x="562" y="340" as="targetPoint" />
          </mxGeometry>
        </mxCell>
        <mxCell id="eVm-2CJbFupEROwd0Fsr-42" value="API (43)" style="rounded=0;whiteSpace=wrap;html=1;fillColor=#d5e8d4;strokeColor=#82b366;" parent="1" vertex="1">
          <mxGeometry x="442" y="475" width="90" height="40" as="geometry" />
        </mxCell>
        <mxCell id="eVm-2CJbFupEROwd0Fsr-45" value="HIS&lt;br&gt;Chiangmai" style="shape=cylinder3;whiteSpace=wrap;html=1;boundedLbl=1;backgroundOutline=1;size=15;" parent="1" vertex="1">
          <mxGeometry x="44" y="600" width="70" height="80" as="geometry" />
        </mxCell>
        <mxCell id="eVm-2CJbFupEROwd0Fsr-51" style="edgeStyle=orthogonalEdgeStyle;rounded=0;orthogonalLoop=1;jettySize=auto;html=1;entryX=1;entryY=0.5;entryDx=0;entryDy=0;entryPerimeter=0;startArrow=classic;startFill=1;endArrow=none;endFill=0;" parent="1" source="eVm-2CJbFupEROwd0Fsr-46" target="eVm-2CJbFupEROwd0Fsr-45" edge="1">
          <mxGeometry relative="1" as="geometry" />
        </mxCell>
        <mxCell id="eVm-2CJbFupEROwd0Fsr-52" style="edgeStyle=orthogonalEdgeStyle;rounded=0;orthogonalLoop=1;jettySize=auto;html=1;entryX=0;entryY=0.5;entryDx=0;entryDy=0;startArrow=none;startFill=0;endArrow=classic;endFill=1;" parent="1" source="eVm-2CJbFupEROwd0Fsr-46" target="eVm-2CJbFupEROwd0Fsr-47" edge="1">
          <mxGeometry relative="1" as="geometry" />
        </mxCell>
        <mxCell id="eVm-2CJbFupEROwd0Fsr-46" value="iHIMS&lt;br&gt;API client" style="rounded=0;whiteSpace=wrap;html=1;" parent="1" vertex="1">
          <mxGeometry x="160" y="620" width="90" height="40" as="geometry" />
        </mxCell>
        <mxCell id="eVm-2CJbFupEROwd0Fsr-53" style="edgeStyle=orthogonalEdgeStyle;rounded=0;orthogonalLoop=1;jettySize=auto;html=1;entryX=0.5;entryY=1;entryDx=0;entryDy=0;startArrow=none;startFill=0;" parent="1" source="eVm-2CJbFupEROwd0Fsr-47" target="eVm-2CJbFupEROwd0Fsr-24" edge="1">
          <mxGeometry relative="1" as="geometry" />
        </mxCell>
        <mxCell id="eVm-2CJbFupEROwd0Fsr-47" value="iHIMS&lt;br&gt;API server" style="rounded=0;whiteSpace=wrap;html=1;" parent="1" vertex="1">
          <mxGeometry x="442" y="670" width="90" height="40" as="geometry" />
        </mxCell>
        <mxCell id="eVm-2CJbFupEROwd0Fsr-54" value="HIS&lt;br&gt;Lamphun" style="shape=cylinder3;whiteSpace=wrap;html=1;boundedLbl=1;backgroundOutline=1;size=15;" parent="1" vertex="1">
          <mxGeometry x="44" y="710" width="70" height="80" as="geometry" />
        </mxCell>
        <mxCell id="eVm-2CJbFupEROwd0Fsr-55" style="edgeStyle=orthogonalEdgeStyle;rounded=0;orthogonalLoop=1;jettySize=auto;html=1;entryX=1;entryY=0.5;entryDx=0;entryDy=0;entryPerimeter=0;startArrow=classic;startFill=1;endArrow=none;endFill=0;" parent="1" source="eVm-2CJbFupEROwd0Fsr-57" target="eVm-2CJbFupEROwd0Fsr-54" edge="1">
          <mxGeometry relative="1" as="geometry" />
        </mxCell>
        <mxCell id="eVm-2CJbFupEROwd0Fsr-56" style="edgeStyle=orthogonalEdgeStyle;rounded=0;orthogonalLoop=1;jettySize=auto;html=1;entryX=0.5;entryY=1;entryDx=0;entryDy=0;startArrow=none;startFill=0;" parent="1" source="eVm-2CJbFupEROwd0Fsr-57" target="eVm-2CJbFupEROwd0Fsr-47" edge="1">
          <mxGeometry relative="1" as="geometry">
            <mxPoint x="300" y="750" as="targetPoint" />
          </mxGeometry>
        </mxCell>
        <mxCell id="eVm-2CJbFupEROwd0Fsr-57" value="iHIMS&lt;br&gt;API client" style="rounded=0;whiteSpace=wrap;html=1;" parent="1" vertex="1">
          <mxGeometry x="160" y="730" width="90" height="40" as="geometry" />
        </mxCell>
        <mxCell id="eVm-2CJbFupEROwd0Fsr-59" value="HIS&lt;br&gt;MaeHangson" style="shape=cylinder3;whiteSpace=wrap;html=1;boundedLbl=1;backgroundOutline=1;size=15;" parent="1" vertex="1">
          <mxGeometry x="44" y="830" width="70" height="80" as="geometry" />
        </mxCell>
        <mxCell id="eVm-2CJbFupEROwd0Fsr-60" style="edgeStyle=orthogonalEdgeStyle;rounded=0;orthogonalLoop=1;jettySize=auto;html=1;entryX=1;entryY=0.5;entryDx=0;entryDy=0;entryPerimeter=0;startArrow=classic;startFill=1;endArrow=none;endFill=0;" parent="1" source="eVm-2CJbFupEROwd0Fsr-62" target="eVm-2CJbFupEROwd0Fsr-59" edge="1">
          <mxGeometry relative="1" as="geometry" />
        </mxCell>
        <mxCell id="eVm-2CJbFupEROwd0Fsr-61" style="edgeStyle=orthogonalEdgeStyle;rounded=0;orthogonalLoop=1;jettySize=auto;html=1;startArrow=none;startFill=0;" parent="1" source="eVm-2CJbFupEROwd0Fsr-62" edge="1" target="eVm-2CJbFupEROwd0Fsr-47">
          <mxGeometry relative="1" as="geometry">
            <mxPoint x="345" y="660" as="targetPoint" />
          </mxGeometry>
        </mxCell>
        <mxCell id="eVm-2CJbFupEROwd0Fsr-62" value="iHIMS&lt;br&gt;API client" style="rounded=0;whiteSpace=wrap;html=1;" parent="1" vertex="1">
          <mxGeometry x="160" y="850" width="90" height="40" as="geometry" />
        </mxCell>
        <mxCell id="eVm-2CJbFupEROwd0Fsr-64" value="HIS&lt;br&gt;Chiangrai" style="shape=cylinder3;whiteSpace=wrap;html=1;boundedLbl=1;backgroundOutline=1;size=15;" parent="1" vertex="1">
          <mxGeometry x="44" y="950" width="70" height="80" as="geometry" />
        </mxCell>
        <mxCell id="eVm-2CJbFupEROwd0Fsr-65" style="edgeStyle=orthogonalEdgeStyle;rounded=0;orthogonalLoop=1;jettySize=auto;html=1;entryX=1;entryY=0.5;entryDx=0;entryDy=0;entryPerimeter=0;startArrow=classic;startFill=1;endArrow=none;endFill=0;" parent="1" source="eVm-2CJbFupEROwd0Fsr-67" target="eVm-2CJbFupEROwd0Fsr-64" edge="1">
          <mxGeometry relative="1" as="geometry">
            <Array as="points">
              <mxPoint x="140" y="990" />
              <mxPoint x="140" y="990" />
            </Array>
          </mxGeometry>
        </mxCell>
        <mxCell id="eVm-2CJbFupEROwd0Fsr-66" style="edgeStyle=orthogonalEdgeStyle;rounded=0;orthogonalLoop=1;jettySize=auto;html=1;startArrow=none;startFill=0;entryX=0.5;entryY=1;entryDx=0;entryDy=0;" parent="1" source="eVm-2CJbFupEROwd0Fsr-67" target="eVm-2CJbFupEROwd0Fsr-47" edge="1">
          <mxGeometry relative="1" as="geometry">
            <mxPoint x="300" y="990" as="targetPoint" />
          </mxGeometry>
        </mxCell>
        <mxCell id="eVm-2CJbFupEROwd0Fsr-67" value="iHIMS&lt;br&gt;API client" style="rounded=0;whiteSpace=wrap;html=1;" parent="1" vertex="1">
          <mxGeometry x="160" y="970" width="90" height="40" as="geometry" />
        </mxCell>
        <mxCell id="eVm-2CJbFupEROwd0Fsr-79" style="edgeStyle=orthogonalEdgeStyle;rounded=0;orthogonalLoop=1;jettySize=auto;html=1;entryX=0.5;entryY=0;entryDx=0;entryDy=0;" parent="1" source="eVm-2CJbFupEROwd0Fsr-73" target="eVm-2CJbFupEROwd0Fsr-77" edge="1">
          <mxGeometry relative="1" as="geometry" />
        </mxCell>
        <mxCell id="eVm-2CJbFupEROwd0Fsr-73" value="processing data" style="rounded=0;whiteSpace=wrap;html=1;" parent="1" vertex="1">
          <mxGeometry x="720" y="710" width="90" height="40" as="geometry" />
        </mxCell>
        <mxCell id="eVm-2CJbFupEROwd0Fsr-80" style="edgeStyle=orthogonalEdgeStyle;rounded=0;orthogonalLoop=1;jettySize=auto;html=1;entryX=0.5;entryY=0;entryDx=0;entryDy=0;" parent="1" source="eVm-2CJbFupEROwd0Fsr-77" target="eVm-2CJbFupEROwd0Fsr-78" edge="1">
          <mxGeometry relative="1" as="geometry" />
        </mxCell>
        <mxCell id="eVm-2CJbFupEROwd0Fsr-77" value="summary data" style="rounded=0;whiteSpace=wrap;html=1;" parent="1" vertex="1">
          <mxGeometry x="720" y="810" width="90" height="40" as="geometry" />
        </mxCell>
        <mxCell id="eVm-2CJbFupEROwd0Fsr-78" value="report" style="shape=document;whiteSpace=wrap;html=1;boundedLbl=1;" parent="1" vertex="1">
          <mxGeometry x="720" y="910" width="90" height="60" as="geometry" />
        </mxCell>
        <mxCell id="k5nkyvec4BkF93eA9V-N-2" value="flow การไหลของข้อมูลปัจจุบัน" style="text;html=1;align=center;verticalAlign=middle;resizable=0;points=[];autosize=1;strokeColor=none;fillColor=none;fontStyle=1;fontSize=15;" vertex="1" parent="1">
          <mxGeometry x="220" y="30" width="210" height="30" as="geometry" />
        </mxCell>
        <mxCell id="k5nkyvec4BkF93eA9V-N-3" value="Data in 43 files format" style="rounded=0;whiteSpace=wrap;html=1;" vertex="1" parent="1">
          <mxGeometry x="310" y="644" width="90" height="40" as="geometry" />
        </mxCell>
        <mxCell id="k5nkyvec4BkF93eA9V-N-7" value="Data in 43 files format" style="rounded=0;whiteSpace=wrap;html=1;" vertex="1" parent="1">
          <mxGeometry x="310" y="730" width="90" height="40" as="geometry" />
        </mxCell>
        <mxCell id="k5nkyvec4BkF93eA9V-N-9" value="Data in 43 files format" style="rounded=0;whiteSpace=wrap;html=1;" vertex="1" parent="1">
          <mxGeometry x="310" y="850" width="90" height="40" as="geometry" />
        </mxCell>
        <mxCell id="k5nkyvec4BkF93eA9V-N-10" value="Data in 43 files format" style="rounded=0;whiteSpace=wrap;html=1;" vertex="1" parent="1">
          <mxGeometry x="310" y="970" width="90" height="40" as="geometry" />
        </mxCell>
        <mxCell id="k5nkyvec4BkF93eA9V-N-12" value="... n" style="text;html=1;align=center;verticalAlign=middle;resizable=0;points=[];autosize=1;strokeColor=none;fillColor=none;fontSize=16;fontStyle=1" vertex="1" parent="1">
          <mxGeometry x="54" y="1040" width="50" height="30" as="geometry" />
        </mxCell>
        <mxCell id="k5nkyvec4BkF93eA9V-N-13" value="อนาคตจะปรับเป็น flow นี้ โดยดึงจาก HIS ตามรูปแบบโครงสร้าง 43 แฟ้ม&amp;nbsp;" style="text;html=1;align=center;verticalAlign=middle;resizable=0;points=[];autosize=1;strokeColor=none;fillColor=none;fontStyle=1;fontSize=15;" vertex="1" parent="1">
          <mxGeometry x="80" y="570" width="480" height="30" as="geometry" />
        </mxCell>
      </root>
    </mxGraphModel>
  </diagram>
</mxfile>
